…
Update the name in `litters_df`. Convert column names to lower snake
case. no space, replace it with underline.

``` r
litters_df = 
  janitor::clean_names(litters_df)
```

Look at the data again

``` r
litters_df
```

    ## # A tibble: 49 × 8
    ##    group litter_number   gd0_weight gd18_weight gd_of_birth pups_born_alive
    ##    <chr> <chr>           <chr>      <chr>             <dbl>           <dbl>
    ##  1 Con7  #85             19.7       34.7                 20               3
    ##  2 Con7  #1/2/95/2       27         42                   19               8
    ##  3 Con7  #5/5/3/83/3-3   26         41.4                 19               6
    ##  4 Con7  #5/4/2/95/2     28.5       44.1                 19               5
    ##  5 Con7  #4/2/95/3-3     <NA>       <NA>                 20               6
    ##  6 Con7  #2/2/95/3-2     <NA>       <NA>                 20               6
    ##  7 Con7  #1/5/3/83/3-3/2 <NA>       <NA>                 20               9
    ##  8 Con8  #3/83/3-3       <NA>       <NA>                 20               9
    ##  9 Con8  #2/95/3         <NA>       <NA>                 20               8
    ## 10 Con8  #3/5/2/2/95     28.5       <NA>                 20               8
    ## # ℹ 39 more rows
    ## # ℹ 2 more variables: pups_dead_birth <dbl>, pups_survive <dbl>
…
``` r
pups_readr
```

    ## # A tibble: 316 × 6
    ##    ...1          `1 = male, 2 = female` ...3    ...4    ...5     ...6   
    ##    <chr>         <chr>                  <chr>   <chr>   <chr>    <chr>  
    ##  1 <NA>          <NA>                   <NA>    <NA>    <NA>     <NA>   
    ##  2 <NA>          <NA>                   <NA>    <NA>    <NA>     <NA>   
    ##  3 Litter Number Sex                    PD ears PD eyes PD pivot PD walk
    ##  4 #85           1                      4       13      7        11     
    ##  5 #85           1                      4       13      7        12     
    ##  6 #1/2/95/2     1                      5       13      7        9      
    ##  7 #1/2/95/2     1                      5       13      8        10     
    ##  8 #5/5/3/83/3-3 1                      5       13      8        10     
    ##  9 #5/5/3/83/3-3 1                      5       14      6        9      
    ## 10 #5/4/2/95/2   1                      .       14      5        9      
    ## # ℹ 306 more rows
…
